-------------------------------------------------------------------------------
Test set: org.dcm4che2.data.TagTest
-------------------------------------------------------------------------------
Tests run: 9, Failures: 0, Errors: 0, Skipped: 0, Time elapsed: 0.002 sec
