-------------------------------------------------------------------------------
Test set: org.dcm4che2.io.SAXWriterTest
-------------------------------------------------------------------------------
Tests run: 5, Failures: 0, Errors: 0, Skipped: 0, Time elapsed: 0.342 sec
