-------------------------------------------------------------------------------
Test set: org.dcm4che2.hp.HPDisplaySetTest
-------------------------------------------------------------------------------
Tests run: 1, Failures: 0, Errors: 0, Skipped: 0, Time elapsed: 0.096 sec
